…
See the LES [methodology](https://thelawmakers.org/methodology) page for
more information on these methods.

## Examples

``` r
get_les("house")
#> # A tibble: 11,606 × 88
#>    thomas_num thomas_name     icpsr congress  year st_name    cd dem   elected
#>         <int> <chr>           <int>    <int> <int> <fct>   <int> <lgl>   <int>
#>  1          1 Abdnor, James   14000       93  1973 SD          2 FALSE    1972
#>  2          2 Abzug, Bella    13001       93  1973 NY         20 TRUE     1970
#>  3          3 Adams, Brock    10700       93  1973 WA          7 TRUE     1964
#>  4          4 Addabbo, Joseph 10500       93  1973 NY          7 TRUE     1960
#>  5          5 Albert, Carl       62       93  1973 OK          3 TRUE     1946
#>  6          6 Alexander, Bill 12000       93  1973 AR          1 TRUE     1968
#>  7          7 Anderson, John  10501       93  1973 IL         16 FALSE    1960
#>  8          8 Anderson, Glenn 12001       93  1973 CA         35 TRUE     1968
#>  9          9 Andrews, Ike    14001       93  1973 NC          4 TRUE     1972
#> 10         10 Andrews, Mark   10569       93  1973 ND          1 FALSE    1963
#> # ℹ 11,596 more rows
#> # ℹ 79 more variables: female <lgl>, votepct <dbl>, dwnom1 <dbl>, dwnom2 <dbl>,
#> #   deleg_size <int>, speaker <lgl>, subchr <lgl>, afam <lgl>, latino <lgl>,
#> #   votepct_sq <dbl>, power <lgl>, chair <lgl>, state_leg <lgl>,
#> #   state_leg_prof <dbl>, majority <lgl>, maj_leader <lgl>, min_leader <lgl>,
#> #   meddist <dbl>, majdist <dbl>, freshman <lgl>, seniority <int>,
#> #   TotalInParty <int>, RankInParty1 <int>, party_code <int>, bioname <chr>, …
get_les("senate")
#> # A tibble: 2,635 × 88
#>    last     first state congress cgnum icpsr  year dem   majority elected female
#>    <chr>    <chr> <fct>    <int> <int> <int> <int> <lgl> <lgl>      <int> <lgl> 
#>  1 Abourezk James SD          93     1 13000  1972 TRUE  TRUE        1972 FALSE 
#>  2 Allen    James AL          93     3 12100  1972 TRUE  TRUE        1968 FALSE 
#>  3 Bayh     Birch IN          93     6 10800  1972 TRUE  TRUE        1962 FALSE 
#>  4 Bentsen  Lloyd TX          93    10   660  1972 TRUE  TRUE        1970 FALSE 
#>  5 Bible    Alan  NV          93    11   688  1972 TRUE  TRUE        1954 FALSE 
#>  6 Biden    Jose… DE          93    12 14101  1972 TRUE  TRUE        1972 FALSE 
#>  7 Burdick  Quen… ND          93    16  1252  1972 TRUE  TRUE        1960 FALSE 
#>  8 Byrd     Robe… WV          93    18  1366  1972 TRUE  TRUE        1958 FALSE 
#>  9 Cannon   Howa… NV          93    19  1482  1972 TRUE  TRUE        1958 FALSE 
#> 10 Chiles   Lawt… FL          93    21 13101  1972 TRUE  TRUE        1970 FALSE 
#> # ℹ 2,625 more rows
#> # ℹ 77 more variables: afam <lgl>, latino <lgl>, votepct <dbl>, chair <lgl>,
#> #   subchr <lgl>, seniority <int>, state_leg <lgl>, state_leg_prof <dbl>,
#> #   maj_leader <lgl>, min_leader <lgl>, votepct_sq <dbl>, power <lgl>,
#> #   freshman <lgl>, sensq <int>, deleg_size <int>, party_code <int>,
#> #   bioname <chr>, bioguide_id <chr>, born <int>, died <int>, dwnom1 <dbl>,
#> #   dwnom2 <dbl>, meddist <dbl>, majdist <dbl>, cbill1 <int>, caic1 <int>, …
```
