Get data on members of Congress from Voteview — get_voteview_members • filibustr
…
    Examples

if (FALSE) { # interactive()
get_voteview_members()

# Get data for only one chamber
# NOTE: the President is included in all data
get_voteview_members(chamber = "house")
get_voteview_members(chamber = "senate")
}
# Get data for a specific Congress
get_voteview_members(congress = 100)
#> # A tibble: 543 × 22
#>    congress chamber   icpsr state_icpsr district_code state_abbrev party_code
#>       <int> <fct>     <int>       <int>         <int> <fct>             <int>
#>  1      100 President 99907          99             0 USA                 200
#>  2      100 House     10717          41             2 AL                  200
#>  3      100 House     11000          41             4 AL                  100
#>  4      100 House     11037          41             3 AL                  100
#>  5      100 House     14419          41             5 AL                  100
#>  6      100 House     15022          41             6 AL                  100
#>  7      100 House     15090          41             1 AL                  200
#>  8      100 House     15416          41             7 AL                  100
#>  9      100 House     14066          81             1 AK                  200
#> 10      100 House     10566          61             2 AZ                  100
#> # ℹ 533 more rows
#> # ℹ 15 more variables: occupancy <int>, last_means <int>, bioname <chr>,
#> #   bioguide_id <chr>, born <int>, died <int>, nominate_dim1 <dbl>,
#> #   nominate_dim2 <dbl>, nominate_log_likelihood <dbl>,
#> #   nominate_geo_mean_probability <dbl>, nominate_number_of_votes <int>,
#> #   nominate_number_of_errors <int>, conditional <lgl>,
#> #   nokken_poole_dim1 <dbl>, nokken_poole_dim2 <dbl>
get_voteview_members(congress = current_congress())
#> # A tibble: 544 × 22
#>    congress chamber icpsr state_icpsr district_code state_abbrev party_code
#>       <int> <fct>   <int>       <int>         <int> <fct>             <int>
#>  1      119 House   20301          41             3 AL                  200
#>  2      119 House   21102          41             7 AL                  100
#>  3      119 House   21500          41             6 AL                  200
#>  4      119 House   22140          41             1 AL                  200
#>  5      119 House   22366          41             5 AL                  200
#>  6      119 House   22515          41             2 AL                  100
#>  7      119 House   29701          41             4 AL                  200
#>  8      119 House   22503          81             1 AK                  200
#>  9      119 House   21995          93             0 NA                  200
#> 10      119 House   20305          61             7 AZ                  100
#> # ℹ 534 more rows
#> # ℹ 15 more variables: occupancy <int>, last_means <int>, bioname <chr>,
#> #   bioguide_id <chr>, born <int>, died <int>, nominate_dim1 <dbl>,
#> #   nominate_dim2 <dbl>, nominate_log_likelihood <dbl>,
#> #   nominate_geo_mean_probability <dbl>, nominate_number_of_votes <int>,
#> #   nominate_number_of_errors <int>, conditional <lgl>,
#> #   nokken_poole_dim1 <dbl>, nokken_poole_dim2 <dbl>
…
