…
``` r
if (FALSE) { # interactive() && !is.null(curl::nslookup("voteview.com", error = FALSE))
get_voteview_member_votes()

# Get data for only one chamber
get_voteview_member_votes(chamber = "house")
get_voteview_member_votes(chamber = "senate")

# Get data for a specific Congress
get_voteview_member_votes(congress = 110)
get_voteview_member_votes(congress = current_congress())
}
# Get data for a set of Congresses
get_voteview_member_votes(congress = 1:3)
#> # A tibble: 27,558 × 6
#>    congress chamber rollnumber icpsr cast_code  prob
#>       <int> <fct>        <int> <int>     <int> <dbl>
#>  1        1 House            1   154         6  61.1
#>  2        1 House            1   259         9  99.6
#>  3        1 House            1   379         1 100  
#>  4        1 House            1   649         1  59.2
#>  5        1 House            1   786         1  97.7
#>  6        1 House            1   800         9  99.9
#>  7        1 House            1   878         6  14.4
#>  8        1 House            1   884         9  54.8
#>  9        1 House            1  1118         9  99.9
#> 10        1 House            1  1260         1  99.9
#> # ℹ 27,548 more rows
```
